<<<<<<< HEAD
#date     input  species  name       color        path_summary
#20190521  DNA    cfa      metaG      midnightblue  /Volumes/Chiens/NanoporeDATA/20190521_Fred_Luis/sequencing_summary/thermin_20190521_FAK42755_MN29715_sequencing_run_20190521_86907_sequencing_summary.txt
#20190327  DNA    cfa      MM_CL      mediumblue    /Volumes/Chiens/NanoporeDATA/20190327_twiny/20190327_1542_MN29715_FAK56314_57228f43/MT_110333_20190327_FAK56314_MN29715_sequencing_run_twinny_19437_sequencing_summary.txt
#20191217  DNA    cara     MT         slateblue    /Volumes/Chiens/NanoporeDATA/20191001_Carabe/20191001_0918_MN29715_FAK41531_da248457/MT-110333_20191001_111846_FAK41531_minion_sequencing_run_Carabe_sequencing_summary.txt
20190527  cDNA   hsa      HaC_CTRL   lightcoral    /Volumes/Chiens/NanoporeDATA/20190527_HaCaTCTRL/20190527_165854_FAK43387/MT-110333_20190527_165854_FAK43387_minion_sequencing_run_HaCaTCTRL_sequencing_summary.txt
#20191217  cDNA   hsa      HaC_siRNA  firebrick          /Volumes/Chiens/NanoporeDATA/20191217_siPTBP1_HaCaT/20191217_1652_MN29715_FAK43270_9375a961/MT-110333_20191217_175223_FAK43270_minion_sequencing_run_2019_12_17_WT_sequencing_summary.txt
20191217  cDNA   cfa      Bear      firebrick	/Volumes/Chiens/NanoporeDATA/20200227/Bear/20200227_1750_MN29715_FAL43795_4f1b5364/sequencing_summary_FAL43795_dd62fe7b.txt
20200630 cDNA   cfa    CML10         firebrick   /Volumes/Chiens/NanoporeDATA//20200630/CML10/20200630_1432_MN29715_FAL43691_b824279e/sequencing_summary_FAL43691_e77ff810.txt
20200708 cDNA   cfa    Twiny        firebrick	/Volumes/Chiens/NanoporeDATA//20200708/twiny/20200708_1344_MN29715_FAL46204_29cc9fc5/sequencing_summary_FAL46204_32d9c133.txt
20200721 cDNA   cfa    Popsi         firebrick   /Volumes/Chiens/NanoporeDATA//popsi/20200721_1405_MN29715_FAK63031_d98842c2/sequencing_summary_FAK63031_e697c34c.txt
=======
#date     input  species  name       color        kit                path_summary
20190521  DNA    cfa      metaG      midnightblue  LSK109_barcoding /Volumes/Chiens/NanoporeDATA/20190521_Fred_Luis/sequencing_summary/thermin_20190521_FAK42755_MN29715_sequencing_run_20190521_86907_sequencing_summary.txt
20190327  DNA    cfa      MM_CL      mediumblue    SQK-RAD004       /Volumes/Chiens/NanoporeDATA/20190327_twiny/20190327_1542_MN29715_FAK56314_57228f43/MT_110333_20190327_FAK56314_MN29715_sequencing_run_twinny_19437_sequencing_summary.txt
#20191217  DNA    cara     MT         slateblue    SQK-RAD004       /Volumes/Chiens/NanoporeDATA/20191001_Carabe/20191001_0918_MN29715_FAK41531_da248457/MT-110333_20191001_111846_FAK41531_minion_sequencing_run_Carabe_sequencing_summary.txt
20190527  cDNA   hsa      HaC_CTRL   lightcoral    SQK-DCS109       /Volumes/Chiens/NanoporeDATA/20190527_HaCaTCTRL/20190527_165854_FAK43387/MT-110333_20190527_165854_FAK43387_minion_sequencing_run_HaCaTCTRL_sequencing_summary.txt
20191217  cDNA   hsa      HaC_siRNA  firebrick     SQK-DCS109       /Volumes/Chiens/NanoporeDATA/20191217_siPTBP1_HaCaT/20191217_1652_MN29715_FAK43270_9375a961/MT-110333_20191217_175223_FAK43270_minion_sequencing_run_2019_12_17_WT_sequencing_summary.txt
20191217  cDNA   cfa      MM_CL      darkred       SQK-DCS109       /Volumes/Chiens/NanoporeDATA/20200227/Bear/20200227_1750_MN29715_FAL43795_4f1b5364/sequencing_summary_FAL43795_dd62fe7b.txt
>>>>>>> 99cf4970aea520acda7562855cc02486c22bf84f
