General summary:                   DNA-cfa-metaG            DNA-cfa-MM_CL              DNA-cara-MT        cDNA-hsa-HaC_CTRL       cDNA-hsa-HaC_siRNA           cDNA-cfa-MM_CL
Active channels:                           506.0                    502.0                    440.0                    511.0                    512.0                    491.0
Mean read length:                        1,249.1                  6,585.5                    346.6                    920.8                    956.7                    956.6
Mean read quality:                           8.8                      9.8                      8.0                      7.3                      7.4                      7.9
Median read length:                        720.0                  3,628.0                    232.0                    676.0                    714.0                    718.0
Median read quality:                         9.3                     10.4                      8.3                      7.7                      7.6                      8.2
Number of reads:                     9,784,935.0                967,204.0              2,199,984.0              4,806,375.0              1,753,912.0              4,002,891.0
Read length N50:                         2,026.0                 12,675.0                    390.0                  1,255.0                  1,297.0                  1,286.0
Total bases:                    12,222,396,154.0          6,369,485,873.0            762,520,516.0          4,425,846,357.0          1,677,893,613.0          3,829,305,527.0
Number, percentage and megabases of reads above quality cutoffs
>Q5:	8972290 (91.7%) 11768.2Mb	922391 (95.4%) 6230.0Mb	1928033 (87.6%) 641.2Mb	3752788 (78.1%) 3983.1Mb	1350302 (77.0%) 1494.4Mb	3212985 (80.3%) 3487.3Mb
>Q7:	8144977 (83.2%) 10899.9Mb	874957 (90.5%) 5987.9Mb	1536100 (69.8%) 532.4Mb	2913722 (60.6%) 3312.9Mb	1051932 (60.0%) 1236.7Mb	2628594 (65.7%) 3006.6Mb
>Q10:	3072963 (31.4%) 4613.0Mb	588602 (60.9%) 4345.7Mb	434094 (19.7%) 190.3Mb	719116 (15.0%) 855.0Mb	311233 (17.7%) 355.8Mb	1050826 (26.3%) 1214.2Mb
>Q12:	54905 (0.6%) 58.6Mb	22784 (2.4%) 136.7Mb	36981 (1.7%) 20.2Mb	19950 (0.4%) 20.5Mb	27434 (1.6%) 30.0Mb	130572 (3.3%) 155.8Mb
>Q15:	0 (0.0%) 0.0Mb	0 (0.0%) 0.0Mb	25 (0.0%) 0.0Mb	1 (0.0%) 0.0Mb	15 (0.0%) 0.0Mb	79 (0.0%) 0.0Mb
Top 5 highest mean basecall quality scores and their read lengths
1:	14.8 (375)	13.7 (568)	17.0 (152)	15.3 (368)	16.8 (276)	17.4 (247)
2:	14.2 (351)	13.7 (956)	16.5 (190)	14.8 (300)	16.2 (165)	17.4 (274)
3:	14.2 (551)	13.6 (233)	16.4 (412)	14.7 (584)	15.7 (211)	16.7 (626)
4:	14.1 (267)	13.6 (372)	15.7 (247)	14.7 (235)	15.5 (250)	16.6 (200)
5:	14.1 (253)	13.5 (468)	15.7 (252)	14.6 (400)	15.5 (338)	16.5 (815)
Top 5 longest reads and their mean basecall quality score
1:	69733 (7.5)	156683 (9.6)	225529 (4.3)	194204 (3.3)	176461 (3.7)	88850 (3.8)
2:	67877 (10.1)	146542 (11.3)	181035 (3.7)	148837 (3.6)	119587 (3.4)	60526 (4.1)
3:	67370 (7.1)	144546 (10.4)	178486 (3.4)	113559 (2.9)	116483 (3.7)	53758 (3.8)
4:	66304 (10.9)	144432 (11.1)	148856 (3.8)	111018 (3.3)	73690 (3.7)	44650 (7.8)
5:	64628 (5.2)	142272 (8.2)	130511 (3.5)	95683 (3.2)	51496 (3.5)	33804 (8.6)
